IN: 1:0 6:0 OUT: 3:0 
IN: 1:0 6:1 OUT: 3:1 
IN: 1:1 6:0 OUT: 3:1 
IN: 1:1 6:1 OUT: 3:0 
IN: 1:0 6:0 OUT: 3:0 
IN: 1:0 6:1 OUT: 3:1 
IN: 1:1 6:0 OUT: 3:1 
IN: 1:1 6:1 OUT: 3:0 
IN: 1:0 6:0 OUT: 3:0 
IN: 1:0 6:1 OUT: 3:1 
IN: 1:1 6:0 OUT: 3:1 
IN: 1:1 6:1 OUT: 3:0 
IN: 1:0 6:0 OUT: 3:0 
IN: 1:0 6:1 OUT: 3:1 
IN: 1:1 6:0 OUT: 3:1 
IN: 1:1 6:1 OUT: 3:0 
